Data base
…
regressions_tidied <- regressions %>% 
  unnest(tidied)

regressions_tidied

# A tibble: 624 x 12
   era   basin gamma_slab data  fit   term  estimate std.error statistic
   <chr> <chr> <fct>      <lis> <lis> <chr>    <dbl>     <dbl>     <dbl>
 1 JGOF~ Atla~ (26.5,26.~ <tib~ <lm>  (Int~  1.05e+3  269.         3.91 
 2 JGOF~ Atla~ (26.5,26.~ <tib~ <lm>  sali~  1.17e+1    2.87       4.08 
 3 JGOF~ Atla~ (26.5,26.~ <tib~ <lm>  temp~ -1.52e+1    3.66      -4.16 
 4 JGOF~ Atla~ (26.5,26.~ <tib~ <lm>  aou   -6.83e-1    0.729     -0.938
 5 JGOF~ Atla~ (26.5,26.~ <tib~ <lm>  oxyg~ -1.40e+0    0.718     -1.96 
 6 JGOF~ Atla~ (26.5,26.~ <tib~ <lm>  sili~ -2.27e+0    0.285     -7.95 
 7 JGOF~ Atla~ (26.5,26.~ <tib~ <lm>  phos~ -1.05e+2    5.49     -19.2  
 8 JGOF~ Atla~ (26.5,26.~ <tib~ <lm>  phos~  3.07e-3    0.0245     0.125
 9 JGOF~ Atla~ (27.25,27~ <tib~ <lm>  (Int~  1.66e+3  103.        16.1  
10 JGOF~ Atla~ (27.25,27~ <tib~ <lm>  sali~  9.62e+0    1.74       5.52 
# ... with 614 more rows, and 3 more variables: p.value <dbl>, glanced <list>,
#   augmented <list>
…
regressions %>% 
  unnest(glanced)

# A tibble: 78 x 19
   era   basin gamma_slab data  fit   tidied r.squared adj.r.squared sigma
   <chr> <chr> <fct>      <lis> <lis> <list>     <dbl>         <dbl> <dbl>
 1 JGOF~ Atla~ (26.5,26.~ <tib~ <lm>  <tibb~     0.924         0.924  5.17
 2 JGOF~ Atla~ (27.25,27~ <tib~ <lm>  <tibb~     0.986         0.986  4.67
 3 JGOF~ Atla~ (27.5,27.~ <tib~ <lm>  <tibb~     0.988         0.988  4.17
 4 JGOF~ Atla~ (26.75,27] <tib~ <lm>  <tibb~     0.950         0.950  4.69
 5 JGOF~ Atla~ (26,26.5]  <tib~ <lm>  <tibb~     0.896         0.894  5.38
 6 JGOF~ Atla~ (-Inf,26]  <tib~ <lm>  <tibb~     0.768         0.743  7.46
 7 JGOF~ Atla~ (28.1,28.~ <tib~ <lm>  <tibb~     0.963         0.963  3.34
 8 JGOF~ Atla~ (27,27.25] <tib~ <lm>  <tibb~     0.975         0.975  4.91
 9 GO-S~ Atla~ (27.75,27~ <tib~ <lm>  <tibb~     0.984         0.983  4.34
10 GO-S~ Atla~ (27,27.25] <tib~ <lm>  <tibb~     0.977         0.977  4.91
# ... with 68 more rows, and 10 more variables: statistic <dbl>, p.value <dbl>,
#   df <dbl>, logLik <dbl>, AIC <dbl>, BIC <dbl>, deviance <dbl>,
#   df.residual <int>, nobs <int>, augmented <list>

regressions %>% 
  unnest(augmented)

# A tibble: 177,773 x 21
   era   basin gamma_slab data  fit   tidied glanced Cstar salinity temperature
   <chr> <chr> <fct>      <lis> <lis> <list> <list>  <dbl>    <dbl>       <dbl>
 1 JGOF~ Atla~ (26.5,26.~ <tib~ <lm>  <tibb~ <tibbl~  859.     36.6        18.1
 2 JGOF~ Atla~ (26.5,26.~ <tib~ <lm>  <tibb~ <tibbl~  844.     35.5        14.6
 3 JGOF~ Atla~ (26.5,26.~ <tib~ <lm>  <tibb~ <tibbl~  834.     35.4        13.9
 4 JGOF~ Atla~ (26.5,26.~ <tib~ <lm>  <tibb~ <tibbl~  843.     35.3        13.0
 5 JGOF~ Atla~ (26.5,26.~ <tib~ <lm>  <tibb~ <tibbl~  838.     35.3        13.1
 6 JGOF~ Atla~ (26.5,26.~ <tib~ <lm>  <tibb~ <tibbl~  877.     36.1        16.5
 7 JGOF~ Atla~ (26.5,26.~ <tib~ <lm>  <tibb~ <tibbl~  868.     36.1        16.4
 8 JGOF~ Atla~ (26.5,26.~ <tib~ <lm>  <tibb~ <tibbl~  868.     36.1        15.7
 9 JGOF~ Atla~ (26.5,26.~ <tib~ <lm>  <tibb~ <tibbl~  864.     36.0        15.5
10 JGOF~ Atla~ (26.5,26.~ <tib~ <lm>  <tibb~ <tibbl~  872.     36.1        16.2
# ... with 177,763 more rows, and 11 more variables: aou <dbl>, oxygen <dbl>,
#   silicate <dbl>, phosphate <dbl>, phosphate_star <dbl>, .fitted <dbl>,
#   .resid <dbl>, .std.resid <dbl>, .hat <dbl>, .sigma <dbl>, .cooksd <dbl>
…
